<?xml version="1.0" encoding="UTF-8"?>
<svg width="11px" height="6px" viewBox="0 0 11 6" version="1.1" xmlns="http://www.w3.org/2000/svg" xmlns:xlink="http://www.w3.org/1999/xlink">
    <!-- Generator: Sketch 52.2 (67145) - http://www.bohemiancoding.com/sketch -->
    <title>Shape</title>
    <desc>Created with Sketch.</desc>
    <g id="My-account" stroke="none" stroke-width="1" fill="none" fill-rule="evenodd">
        <g id="Personal-details" transform="translate(-603.000000, -377.000000)" fill="#474202" fill-rule="nonzero" stroke="#474202" stroke-width="0.5">
            <path d="M610.732347,385 C610.664743,385 610.596933,384.972444 610.544755,384.917556 L606.122991,380.245779 C606.047312,380.193557 606,380.103112 606,380.004334 C606,379.912668 606.040686,379.825446 606.10684,379.77089 L610.509245,375.083224 C610.614326,374.971669 610.783593,374.972335 610.887535,375.08478 C610.991787,375.197446 610.990959,375.379224 610.885982,375.490891 L606.65212,379.999223 L610.920146,384.508333 C611.025433,384.619556 611.026779,384.801333 610.923148,384.914333 C610.870763,384.971333 610.801607,385 610.732347,385 Z" id="Shape" transform="translate(608.500000, 380.000000) rotate(-90.000000) translate(-608.500000, -380.000000) "></path>
        </g>
    </g>
</svg>